…
  Character or numeric. Filter tables that contain data for this year.
  NULL returns tables for all years.

## Value

A tibble with columns: table_code, table_name, theme, years,
territorial_levels.

## Examples

``` r
# list all Census tables
censo_sidra_tables()
#> # A tibble: 28 × 5
#>    table_code table_name                          theme years territorial_levels
#>    <chr>      <chr>                               <chr> <lis> <list>            
#>  1 1378       População residente por sexo e fai… age_… <chr> <chr [4]>         
#>  2 9513       População residente por sexo e fai… age_… <chr> <chr [4]>         
#>  3 3426       Pessoas com deficiência por tipo (… disa… <chr> <chr [4]>         
#>  4 9567       Pessoas com deficiência por tipo (… disa… <chr> <chr [4]>         
#>  5 3541       Pessoas de 10 anos ou mais por nív… educ… <chr> <chr [4]>         
#>  6 9544       Pessoas de 10 anos ou mais por nív… educ… <chr> <chr [4]>         
#>  7 6579       Estimativas de população (2001-202… esti… <chr> <chr [4]>         
#>  8 2445       Mulheres de 10 anos ou mais por fi… fert… <chr> <chr [4]>         
#>  9 9583       Mulheres de 10 anos ou mais por fi… fert… <chr> <chr [4]>         
#> 10 1288       Domicílios particulares permanente… hous… <chr> <chr [4]>         
#> # ℹ 18 more rows
…
