…
## Examples

``` r
# \donttest{
# population by state from 2022 Census
censo_sidra_data(
  table = 9514,
  territorial_level = "state",
  year = 2022,
  variable = 93
)
#> ℹ Querying SIDRA API for table "9514"...
#> ✔ Retrieved 27 rows from SIDRA table "9514"
#> # A tibble: 27 × 17
#>    nc    nn         mc    mn         v d1c   d1n   d2c   d2n   d3c   d3n   d4c  
#>    <chr> <chr>      <chr> <chr>  <dbl> <chr> <chr> <chr> <chr> <chr> <chr> <chr>
#>  1 3     Unidade d… 45    Pess… 1.58e6 11    Rond… 93    Popu… 2022  2022  6794 
#>  2 3     Unidade d… 45    Pess… 8.30e5 12    Acre  93    Popu… 2022  2022  6794 
#>  3 3     Unidade d… 45    Pess… 3.94e6 13    Amaz… 93    Popu… 2022  2022  6794 
#>  4 3     Unidade d… 45    Pess… 6.37e5 14    Rora… 93    Popu… 2022  2022  6794 
#>  5 3     Unidade d… 45    Pess… 8.12e6 15    Pará  93    Popu… 2022  2022  6794 
#>  6 3     Unidade d… 45    Pess… 7.34e5 16    Amapá 93    Popu… 2022  2022  6794 
#>  7 3     Unidade d… 45    Pess… 1.51e6 17    Toca… 93    Popu… 2022  2022  6794 
#>  8 3     Unidade d… 45    Pess… 6.78e6 21    Mara… 93    Popu… 2022  2022  6794 
#>  9 3     Unidade d… 45    Pess… 3.27e6 22    Piauí 93    Popu… 2022  2022  6794 
#> 10 3     Unidade d… 45    Pess… 8.79e6 23    Ceará 93    Popu… 2022  2022  6794 
#> # ℹ 17 more rows
#> # ℹ 5 more variables: d4n <chr>, d5c <chr>, d5n <chr>, d6c <chr>, d6n <chr>
…
