…
- year:

  Numeric. Year to get modules for (2013 or 2019). NULL returns modules
  for all years. Default is NULL.

## Value

A tibble with module codes, names, and descriptions.

## Examples

``` r
pns_modules()
#> # A tibble: 23 × 3
#>    module name                                 name_en                          
#>    <chr>  <chr>                                <chr>                            
#>  1 A      Informações do domicílio             Household information            
#>  2 C      Características gerais dos moradores General characteristics of resid…
#>  3 D      Educação                             Education                        
#>  4 E      Trabalho e rendimento                Work and income                  
#>  5 F      Pessoas com deficiência              Persons with disabilities        
#>  6 G      Cobertura de plano de saúde          Health insurance coverage        
#>  7 H      Utilização de serviços de saúde      Health services utilization      
#>  8 I      Saúde dos moradores do domicílio     Health of household residents    
#>  9 J      Percepção do estado de saúde         Health status perception         
#> 10 K      Acidentes e violências               Accidents and violence           
#> # ℹ 13 more rows
…
