Get PNS tabulated data from SIDRA API — pns_sidra_data • healthbR
…
    A tibble with queried indicators.

    Examples

# \donttest{
# self-rated health by state, 2019
pns_sidra_data(
  table = 4751,
  territorial_level = "state",
  year = 2019
)
#> ℹ Querying SIDRA API for table "4751"...
#> ✔ Retrieved 216 rows from SIDRA table "4751"
#> # A tibble: 216 × 15
#>    nc    nn         mc    mn         v d1c   d1n   d2c   d2n   d3c   d3n   d4c  
#>    <chr> <chr>      <chr> <chr>  <dbl> <chr> <chr> <chr> <chr> <chr> <chr> <chr>
#>  1 3     Unidade d… 1572  Mil … 771228 11    Rond… 4735  Pess… 2019  2019  6795 
#>  2 3     Unidade d… 1572  Mil … 737062 11    Rond… 4736  Pess… 2019  2019  6795 
#>  3 3     Unidade d… 1572  Mil … 805394 11    Rond… 4737  Pess… 2019  2019  6795 
#>  4 3     Unidade d… 2     %         23 11    Rond… 4974  Coef… 2019  2019  6795 
#>  5 3     Unidade d… 2     %        614 11    Rond… 4738  Perc… 2019  2019  6795 
#>  6 3     Unidade d… 2     %        587 11    Rond… 4739  Perc… 2019  2019  6795 
#>  7 3     Unidade d… 2     %        641 11    Rond… 4740  Perc… 2019  2019  6795 
#>  8 3     Unidade d… 2     %         23 11    Rond… 4975  Coef… 2019  2019  6795 
#>  9 3     Unidade d… 1572  Mil … 354679 12    Acre  4735  Pess… 2019  2019  6795 
#> 10 3     Unidade d… 1572  Mil … 338804 12    Acre  4736  Pess… 2019  2019  6795 
#> # ℹ 206 more rows
#> # ℹ 3 more variables: d4n <chr>, d5c <chr>, d5n <chr>
…
