…
  Numeric. Filter tables that contain data for this year. NULL returns
  tables for all years.

## Value

A tibble with columns: table_code, table_name, theme, theme_label,
years, territorial_levels.

## Examples

``` r
# list all tables
pns_sidra_tables()
#> # A tibble: 69 × 6
#>    table_code table_name              theme theme_label years territorial_levels
#>    <chr>      <chr>                   <chr> <chr>       <lis> <list>            
#>  1 5133       Acidentes de trânsito … acci… Acidentes … <chr> <chr [3]>         
#>  2 5135       Acidentes de trânsito … acci… Acidentes … <chr> <chr [3]>         
#>  3 5137       Violência física        acci… Acidentes … <chr> <chr [3]>         
#>  4 4352       Consumo de bebida alco… alco… Consumo de… <chr> <chr [3]>         
#>  5 4354       Consumo de bebida alco… alco… Consumo de… <chr> <chr [3]>         
#>  6 4356       Consumo abusivo de álc… alco… Consumo de… <chr> <chr [3]>         
#>  7 7720       Consumo de álcool - To… alco… Consumo de… <chr> <chr [3]>         
#>  8 7722       Consumo de álcool por … alco… Consumo de… <chr> <chr [3]>         
#>  9 8167       Antropometria - Total   anth… Antropomet… <chr> <chr [3]>         
#> 10 8169       Antropometria por sexo  anth… Antropomet… <chr> <chr [3]>         
#> # ℹ 59 more rows
…
# tables with 2013 data
pns_sidra_tables(year = 2013)
#> # A tibble: 49 × 6
#>    table_code table_name              theme theme_label years territorial_levels
#>    <chr>      <chr>                   <chr> <chr>       <lis> <list>            
#>  1 5133       Acidentes de trânsito … acci… Acidentes … <chr> <chr [3]>         
#>  2 5135       Acidentes de trânsito … acci… Acidentes … <chr> <chr [3]>         
#>  3 5137       Violência física        acci… Acidentes … <chr> <chr [3]>         
#>  4 4352       Consumo de bebida alco… alco… Consumo de… <chr> <chr [3]>         
#>  5 4354       Consumo de bebida alco… alco… Consumo de… <chr> <chr [3]>         
#>  6 4356       Consumo abusivo de álc… alco… Consumo de… <chr> <chr [3]>         
#>  7 4416       Diagnóstico de hiperte… chro… Doenças cr… <chr> <chr [3]>         
#>  8 4418       Diagnóstico de hiperte… chro… Doenças cr… <chr> <chr [3]>         
#>  9 4420       Diagnóstico de hiperte… chro… Doenças cr… <chr> <chr [3]>         
#> 10 4432       Diagnóstico de doença … chro… Doenças cr… <chr> <chr [3]>         
#> # ℹ 39 more rows
```
