…
# filter by procedure code
consult <- sia_data(year = 2022, month = 1, uf = "AC",
                    procedure = "0301")

# filter by diagnosis (CID-10)
resp <- sia_data(year = 2022, month = 1, uf = "AC",
                 diagnosis = "J")

# only key variables
sia_data(year = 2022, month = 1, uf = "AC",
         vars = c("PA_PROC_ID", "PA_CIDPRI", "PA_SEXO",
                  "PA_IDADE", "PA_VALAPR"))
#> # A tibble: 55,963 × 8
#>     year month uf_source PA_PROC_ID PA_CIDPRI PA_SEXO PA_IDADE PA_VALAPR
#>    <int> <int> <chr>     <chr>      <chr>     <chr>   <chr>    <chr>    
#>  1  2022     1 AC        0102010455 0000      0       999      0        
#>  2  2022     1 AC        0102010234 0000      0       999      0        
#>  3  2022     1 AC        0202010120 0000      0       999      499.5    
#>  4  2022     1 AC        0301010048 0000      0       043      81.9     
#>  5  2022     1 AC        0301010072 0000      0       010      60       
#>  6  2022     1 AC        0301010072 0000      F       038      10       
#>  7  2022     1 AC        0301010072 0000      0       075      70       
#>  8  2022     1 AC        0301010072 0000      0       037      70       
#>  9  2022     1 AC        0301100284 0000      M       038      0        
#> 10  2022     1 AC        0301010072 0000      F       024      10       
#> # ℹ 55,953 more rows
…
