…
# only key variables, Rio de Janeiro, March 2022
sih_data(year = 2022, month = 3, uf = "RJ",
         vars = c("DIAG_PRINC", "DT_INTER", "SEXO",
                  "IDADE", "MORTE", "VAL_TOT"))
#> ℹ Downloading SIH data: RJ 2022/03...
#> # A tibble: 66,933 × 9
#>     year month uf_source DIAG_PRINC DT_INTER SEXO  IDADE MORTE VAL_TOT
#>    <int> <int> <chr>     <chr>      <chr>    <chr> <chr> <chr> <chr>  
#>  1  2022     3 RJ        I219       20220125 1     66    0     910.68 
#>  2  2022     3 RJ        I219       20220208 1     62    0     736.56 
#>  3  2022     3 RJ        I219       20220208 1     51    0     794.5  
#>  4  2022     3 RJ        I219       20220208 1     52    0     740.89 
#>  5  2022     3 RJ        I219       20220217 1     65    0     715.78 
#>  6  2022     3 RJ        I219       20220119 1     68    0     960.29 
#>  7  2022     3 RJ        I219       20220224 1     64    0     607.46 
#>  8  2022     3 RJ        S822       20211218 1     18    0     906.54 
#>  9  2022     3 RJ        S820       20220317 1     48    0     344.06 
#> 10  2022     3 RJ        I611       20220317 3     71    1     967.29 
#> # ℹ 66,923 more rows
…
