…
# deaths by infarct in Sao Paulo, 2020-2022
infarct_sp <- sim_data(year = 2020:2022, uf = "SP", cause = "I21")
#> ℹ Downloading 3 file(s) (1 UF(s) x 3 year(s))...
#> ℹ Downloading SIM data: SP 2020...
#> ℹ Downloading SIM data: SP 2021...
#> ℹ Downloading SIM data: SP 2022...

# only key variables, Rio de Janeiro, 2022
sim_data(year = 2022, uf = "RJ",
         vars = c("DTOBITO", "SEXO", "IDADE",
                  "RACACOR", "CODMUNRES", "CAUSABAS"))
#> ℹ Downloading SIM data: RJ 2022...
#> # A tibble: 150,806 × 9
#>     year uf_source DTOBITO  SEXO  IDADE RACACOR CODMUNRES CAUSABAS age_years
#>    <int> <chr>     <chr>    <chr> <chr> <chr>   <chr>     <chr>        <dbl>
#>  1  2022 RJ        27032022 1     484   4       330455    A419            84
#>  2  2022 RJ        26032022 1     457   2       330455    D649            57
#>  3  2022 RJ        26032022 1     484   1       330455    C61             84
#>  4  2022 RJ        26032022 1     478   2       330455    I64             78
#>  5  2022 RJ        30032022 2     466   4       330455    F200            66
#>  6  2022 RJ        27032022 2     438   2       330455    J152            38
#>  7  2022 RJ        26032022 1     453   NA      330455    K746            53
#>  8  2022 RJ        29032022 1     462   4       330455    I619            62
#>  9  2022 RJ        26032022 2     492   4       330455    E46             92
#> 10  2022 RJ        26032022 1     479   2       330455    I219            79
#> # ℹ 150,796 more rows
…
