List SIM Variables — sim_variables • healthbR
…
    See also

    Other sim:
sim_cache_status(),
sim_clear_cache(),
sim_data(),
sim_dictionary(),
sim_info(),
sim_years()

    Examples

sim_variables()
#> # A tibble: 39 × 4
#>    variable   description                                          type  section
#>    <chr>      <chr>                                                <chr> <chr>  
#>  1 TIPOBITO   Tipo do óbito (1=fetal, 2=não fetal)                 char… identi…
#>  2 DTOBITO    Data do óbito (ddmmaaaa)                             date… identi…
#>  3 HORAOBITO  Hora do óbito                                        char… identi…
#>  4 NATURAL    Naturalidade (código IBGE)                           char… identi…
#>  5 DTNASC     Data de nascimento (ddmmaaaa)                        date… identi…
#>  6 CODMUNRES  Município de residência (código IBGE 6 dígitos)      char… locali…
#>  7 CODMUNOCOR Município de ocorrência do óbito (código IBGE)       char… locali…
#>  8 LOCOCOR    Local de ocorrência (1=Hospital, 2=Outro estab., 3=… char… locali…
#>  9 SEXO       Sexo (M=Masculino, F=Feminino, I=Ignorado)           char… demogr…
#> 10 IDADE      Idade codificada (ver sim_dictionary('IDADE'))       char… demogr…
#> # ℹ 29 more rows
…
