…
Other sinan:
[`sinan_cache_status()`](https://sidneybissoli.github.io/healthbR/reference/sinan_cache_status.md),
[`sinan_clear_cache()`](https://sidneybissoli.github.io/healthbR/reference/sinan_clear_cache.md),
[`sinan_data()`](https://sidneybissoli.github.io/healthbR/reference/sinan_data.md),
[`sinan_dictionary()`](https://sidneybissoli.github.io/healthbR/reference/sinan_dictionary.md),
[`sinan_diseases()`](https://sidneybissoli.github.io/healthbR/reference/sinan_diseases.md),
[`sinan_info()`](https://sidneybissoli.github.io/healthbR/reference/sinan_info.md),
[`sinan_years()`](https://sidneybissoli.github.io/healthbR/reference/sinan_years.md)

## Examples

``` r
sinan_variables()
#> # A tibble: 32 × 4
#>    variable   description                                          type  section
#>    <chr>      <chr>                                                <chr> <chr>  
#>  1 NU_NOTIFIC Número da notificação                                char… notifi…
#>  2 TP_NOT     Tipo de notificação (1=Negativa, 2=Individual, 3=Su… char… notifi…
#>  3 ID_AGRAVO  Código do agravo notificado (CID-10)                 char… notifi…
#>  4 DT_NOTIFIC Data da notificação (dd/mm/aaaa)                     char… notifi…
#>  5 SEM_NOT    Semana epidemiológica da notificação                 char… notifi…
#>  6 NU_ANO     Ano da notificação                                   char… notifi…
#>  7 DT_SIN_PRI Data dos primeiros sintomas                          char… notifi…
#>  8 SEM_PRI    Semana epidemiológica dos primeiros sintomas         char… notifi…
#>  9 NM_PACIENT Nome do paciente                                     char… pacien…
#> 10 DT_NASC    Data de nascimento                                   char… pacien…
#> # ℹ 22 more rows
…
