SINAN Data Dictionary — sinan_dictionary • healthbR
…
    See also

    Other sinan:
sinan_cache_status(),
sinan_clear_cache(),
sinan_data(),
sinan_diseases(),
sinan_info(),
sinan_variables(),
sinan_years()

    Examples

sinan_dictionary()
#> # A tibble: 51 × 4
#>    variable description         code  label     
#>    <chr>    <chr>               <chr> <chr>     
#>  1 TP_NOT   Tipo de notificação 1     Negativa  
#>  2 TP_NOT   Tipo de notificação 2     Individual
#>  3 TP_NOT   Tipo de notificação 3     Surto     
#>  4 TP_NOT   Tipo de notificação 4     Agregado  
#>  5 CS_SEXO  Sexo                M     Masculino 
#>  6 CS_SEXO  Sexo                F     Feminino  
#>  7 CS_SEXO  Sexo                I     Ignorado  
#>  8 CS_RACA  Raça/cor            1     Branca    
#>  9 CS_RACA  Raça/cor            2     Preta     
#> 10 CS_RACA  Raça/cor            3     Amarela   
#> # ℹ 41 more rows
…
