…
## See also

Other sinasc:
[`sinasc_cache_status()`](https://sidneybissoli.github.io/healthbR/reference/sinasc_cache_status.md),
[`sinasc_clear_cache()`](https://sidneybissoli.github.io/healthbR/reference/sinasc_clear_cache.md),
[`sinasc_data()`](https://sidneybissoli.github.io/healthbR/reference/sinasc_data.md),
[`sinasc_dictionary()`](https://sidneybissoli.github.io/healthbR/reference/sinasc_dictionary.md),
[`sinasc_info()`](https://sidneybissoli.github.io/healthbR/reference/sinasc_info.md),
[`sinasc_years()`](https://sidneybissoli.github.io/healthbR/reference/sinasc_years.md)

## Examples

``` r
sinasc_variables()
#> # A tibble: 44 × 4
#>    variable  description                                           type  section
#>    <chr>     <chr>                                                 <chr> <chr>  
#>  1 DTNASC    Data de nascimento (ddmmaaaa)                         date… recem_…
#>  2 HORANASC  Hora do nascimento                                    char… recem_…
#>  3 SEXO      Sexo (1=Masculino, 2=Feminino, 0/9=Ignorado)          char… recem_…
#>  4 RACACOR   Raça/cor do recém-nascido                             char… recem_…
#>  5 PESO      Peso ao nascer (gramas)                               inte… recem_…
#>  6 APGAR1    Apgar no 1º minuto                                    inte… recem_…
#>  7 APGAR5    Apgar no 5º minuto                                    inte… recem_…
#>  8 IDANOMAL  Anomalia congênita detectada (1=Sim, 2=Não, 9=Ignora… char… recem_…
#>  9 CODANOMAL Código da anomalia congênita (CID-10)                 char… recem_…
#> 10 IDADEMAE  Idade da mãe (anos)                                   inte… materna
#> # ℹ 34 more rows
…
