…
# births with anomalies in Sao Paulo, 2020-2022
anomalies_sp <- sinasc_data(year = 2020:2022, uf = "SP", anomaly = "Q")
#> ℹ Downloading 3 file(s) (1 UF(s) x 3 year(s))...
#> ℹ Downloading SINASC data: SP 2020...
#> ℹ Downloading SINASC data: SP 2021...
#> ℹ Downloading SINASC data: SP 2022...

# only key variables, Rio de Janeiro, 2022
sinasc_data(year = 2022, uf = "RJ",
            vars = c("DTNASC", "SEXO", "PESO",
                     "IDADEMAE", "PARTO", "CONSULTAS"))
#> ℹ Downloading SINASC data: RJ 2022...
#> # A tibble: 180,369 × 8
#>     year uf_source DTNASC   SEXO  PESO  IDADEMAE PARTO CONSULTAS
#>    <int> <chr>     <chr>    <chr> <chr> <chr>    <chr> <chr>    
#>  1  2022 RJ        21042022 1     2800  20       1     4        
#>  2  2022 RJ        02042022 1     4035  28       2     4        
#>  3  2022 RJ        04052022 2     3800  31       2     4        
#>  4  2022 RJ        28062022 2     3055  26       2     4        
#>  5  2022 RJ        17012022 1     3055  27       1     4        
#>  6  2022 RJ        17012022 2     3450  21       1     4        
#>  7  2022 RJ        20022022 1     2695  34       2     1        
#>  8  2022 RJ        23042022 2     2965  29       1     4        
#>  9  2022 RJ        13022022 2     3800  26       2     4        
#> 10  2022 RJ        30032022 1     3250  29       1     3        
#> # ℹ 180,359 more rows
…
