SI-PNI Data Dictionary — sipni_dictionary • healthbR
…
    See also

    Other sipni:
sipni_cache_status(),
sipni_clear_cache(),
sipni_data(),
sipni_info(),
sipni_variables(),
sipni_years()

    Examples

sipni_dictionary()
#> # A tibble: 36 × 4
#>    variable description              code  label                    
#>    <chr>    <chr>                    <chr> <chr>                    
#>  1 IMUNO    Código do imunobiológico 09    BCG                      
#>  2 IMUNO    Código do imunobiológico 21    Hepatite B               
#>  3 IMUNO    Código do imunobiológico 22    Tríplice bacteriana (DTP)
#>  4 IMUNO    Código do imunobiológico 23    Poliomielite oral (VOP)  
#>  5 IMUNO    Código do imunobiológico 24    Sarampo                  
#>  6 IMUNO    Código do imunobiológico 28    Febre amarela            
#>  7 IMUNO    Código do imunobiológico 29    Tríplice viral (SCR)     
#>  8 IMUNO    Código do imunobiológico 39    Dupla adulto (dT)        
#>  9 IMUNO    Código do imunobiológico 42    Tetravalente (DTP+Hib)   
#> 10 IMUNO    Código do imunobiológico 46    Rotavírus humano         
#> # ℹ 26 more rows
…
