…
#> 11 DOSEN     (Reservado)                       character vacinacao  
#> 12 DIFER     (Reservado)                       character vacinacao  
sipni_variables(type = "CPNI")
#> # A tibble: 7 × 4
#>   variable description                       type      section    
#>   <chr>    <chr>                             <chr>     <chr>      
#> 1 ANO      Ano de referência                 character temporal   
#> 2 UF       Código UF (IBGE 2 dígitos)        character localizacao
#> 3 MUNIC    Código município (IBGE 6 dígitos) character localizacao
#> 4 IMUNO    Código do imunobiológico          character vacinacao  
#> 5 QT_DOSE  Quantidade de doses aplicadas     character vacinacao  
#> 6 POP      População alvo                    character vacinacao  
#> 7 COBERT   Cobertura vacinal (%)             character vacinacao  
sipni_variables(type = "API")
#> # A tibble: 47 × 4
#>    variable                          description                   type  section
#>    <chr>                             <chr>                         <chr> <chr>  
#>  1 sigla_uf_estabelecimento          Sigla UF do estabelecimento   char… estabe…
#>  2 nome_uf_estabelecimento           Nome UF do estabelecimento    char… estabe…
#>  3 codigo_municipio_estabelecimento  Código município do estabele… char… estabe…
#>  4 nome_municipio_estabelecimento    Nome município do estabeleci… char… estabe…
#>  5 codigo_cnes_estabelecimento       Código CNES do estabelecimen… char… estabe…
#>  6 nome_razao_social_estabelecimento Razão social do estabelecime… char… estabe…
#>  7 nome_fantasia_estalecimento       Nome fantasia do estabelecim… char… estabe…
#>  8 codigo_tipo_estabelecimento       Código tipo do estabelecimen… char… estabe…
#>  9 descricao_tipo_estabelecimento    Descrição tipo do estabeleci… char… estabe…
#> 10 codigo_natureza_estabelecimento   Código natureza jurídica do … char… estabe…
#> # ℹ 37 more rows
…
