…
## See also

Other sipni:
[`sipni_cache_status()`](https://sidneybissoli.github.io/healthbR/reference/sipni_cache_status.md),
[`sipni_clear_cache()`](https://sidneybissoli.github.io/healthbR/reference/sipni_clear_cache.md),
[`sipni_data()`](https://sidneybissoli.github.io/healthbR/reference/sipni_data.md),
[`sipni_info()`](https://sidneybissoli.github.io/healthbR/reference/sipni_info.md),
[`sipni_variables()`](https://sidneybissoli.github.io/healthbR/reference/sipni_variables.md),
[`sipni_years()`](https://sidneybissoli.github.io/healthbR/reference/sipni_years.md)

## Examples

``` r
sipni_dictionary()
#> # A tibble: 36 × 4
#>    variable description              code  label                    
#>    <chr>    <chr>                    <chr> <chr>                    
#>  1 IMUNO    Código do imunobiológico 09    BCG                      
#>  2 IMUNO    Código do imunobiológico 21    Hepatite B               
#>  3 IMUNO    Código do imunobiológico 22    Tríplice bacteriana (DTP)
#>  4 IMUNO    Código do imunobiológico 23    Poliomielite oral (VOP)  
#>  5 IMUNO    Código do imunobiológico 24    Sarampo                  
#>  6 IMUNO    Código do imunobiológico 28    Febre amarela            
#>  7 IMUNO    Código do imunobiológico 29    Tríplice viral (SCR)     
#>  8 IMUNO    Código do imunobiológico 39    Dupla adulto (dT)        
#>  9 IMUNO    Código do imunobiológico 42    Tetravalente (DTP+Hib)   
#> 10 IMUNO    Código do imunobiológico 46    Rotavírus humano         
#> # ℹ 26 more rows
…
